// Jest Snapshot v1, https://goo.gl/fbAQLP

exports[`Project/Client component should render closed Client 1`] = `
.c0 {
  position: absolute;
  top: 22px;
  right: 30px;
  font-size: 12px;
  font-weight: 700;
  text-decoration: none;
  text-transform: uppercase;
  color: #595959;
}

.c0:hover {
  color: '#4bc800';
}

.c1 {
  margin-right: 5px;
  color: #4bc800;
}

<div
  data-test="clientSelect"
  onClick={[Function]}
>
  <a
    className="c0"
    href="#"
  >
    <i
      className="fa fa-plus c1"
    />
    SELECT CLIENT
  </a>
</div>
`;

exports[`Project/Client component should render open Client 1`] = `"<div data-test=\\"clientSelect\\"><div class=\\"sc-bdVaJa cPFiFu\\"><div class=\\"sc-bwzfXH gnZRHy\\"><i class=\\"sc-htpNat fa fa-times dLhPCc\\"></i></div><ul class=\\"sc-bxivhb fRDeZz\\"><li class=\\"sc-ifAKCX cqngGL\\" data-test=\\"withoutClientItem\\">Without client</li><li class=\\"sc-ifAKCX cqngGL\\" data-test=\\"clientItem\\">awesome client 001</li><li class=\\"sc-ifAKCX cqngGL\\" data-test=\\"clientItem\\">awesome client 002</li></ul></div></div>"`;
